…
tidy_GDP_data %>% distinct(Country)

## # A tibble: 220 × 1
##    Country            
##    <chr>              
##  1 Afghanistan        
##  2 Albania            
##  3 Algeria            
##  4 Andorra            
##  5 Angola             
##  6 Anguilla           
##  7 Antigua and Barbuda
##  8 Argentina          
##  9 Armenia            
## 10 Aruba              
## # … with 210 more rows
…
